Customer ID,First Name,Middle Name,Last Name,Date of Birth,Nationality,Gender,Country of Residence,ID Type,ID Number
Q 93 321,Drew,Hoyt,Hall,10/08/2019,Paraguay,M,India,2,205412-0510
K 83 769,Breanna,Price,Kenyon,13/12/2019,Solomon Islands,U,United Kingdom,1,566981-8907
Y 18 001,Philip,Abdul,Jerry,13/06/2020,Guinea,F,India,2,812172-2030
L 12 247,Alyssa,Ashton,Holmes,16/10/2019,Djibouti,F,United Kingdom,3,593935-5193
L 99 002,Leo,Palmer,Alfonso,23/06/2019,Antarctica,U,India,2,676867-6741
L 55 080,Isaiah,Lee,Phelan,06/07/2020,Madagascar,F,United Kingdom,1,844165-6827
T 49 615,Ramona,Aaron,Declan,21/04/2019,Anguilla,M,India,1,203768-8310
H 49 402,Jason,Tyler,Damian,13/06/2020,Burundi,M,United Kingdom,1,073758-1868
T 13 744,Odessa,Bevis,Alden,08/09/2019,Dominica,M,United Kingdom,2,624374-1466
Y 39 991,Cedric,Fuller,Palmer,15/02/2019,Anguilla,F,India,2,857727-0427
I 71 561,Lani,Hector,Aquila,23/04/2020,Colombia,F,United Kingdom,2,559009-3638
P 11 481,Finn,Norman,Ishmael,21/12/2018,Macedonia,F,United Kingdom,3,714930-3286
Y 01 043,Finn,Ashton,Alexander,10/09/2020,Guyana,U,India,1,213857-3890
X 17 028,Graiden,Reed,Solomon,21/10/2018,Samoa,U,India,3,216818-4717
L 94 946,Callum,Kennan,Clark,31/12/2018,Tanzania,F,India,2,013223-3446
W 05 254,Amena,Warren,Chaney,26/11/2019,El Salvador,M,India,2,063238-0226
R 99 457,Drake,Sebastian,Orlando,15/10/2018,Iraq,M,United Kingdom,1,696950-3967
E 08 307,Odessa,Tanner,Nathan,20/12/2018,Ethiopia,U,United Kingdom,3,866147-8498
U 14 542,Blake,Addison,Kibo,11/03/2019,Qatar,U,India,2,854234-2921
K 08 005,Colin,John,Nicholas,17/07/2019,Colombia,M,India,2,322473-6680
B 59 440,Logan,Gannon,Clarke,14/12/2018,Norway,M,United Kingdom,3,377936-4060
Q 18 139,Francesca,Rafael,Ezra,30/08/2019,Vanuatu,F,India,1,539983-4026
I 50 571,Susan,Dean,Dominic,28/10/2018,Bulgaria,U,United Kingdom,2,432129-8491
K 37 855,Kirestin,George,Geoffrey,24/01/2019,Iceland,F,India,2,712802-1842
O 14 679,Brian,Igor,Gary,05/12/2019,Kuwait,M,United Kingdom,3,083688-1235
W 20 049,Sean,Driscoll,Philip,21/02/2019,Dominica,M,United Kingdom,1,723490-2612
A 60 782,Xander,Cruz,Solomon,28/03/2020,Qatar,F,India,3,408575-1420
F 06 955,Carlos,Donovan,Brian,22/11/2018,Palau,F,United Kingdom,3,624560-0124
F 56 907,Wyoming,Lucius,Quamar,17/01/2019,Sint Maarten,M,India,1,656111-6226
P 02 405,Benedict,Quentin,Micah,11/12/2019,South Africa,M,India,3,118992-6064
H 39 301,Mikayla,Ferdinand,Scott,24/10/2019,Netherlands,F,United Kingdom,1,908656-8574
L 46 387,Allegra,Gage,Keane,07/03/2019,Afghanistan,F,United Kingdom,1,794148-2981
B 30 043,Coby,Zane,Lamar,25/10/2018,Hong Kong,M,United Kingdom,2,473847-7969
R 42 929,Mary,Daquan,Mason,24/11/2019,United States Minor Outlying Islands,F,United Kingdom,3,755121-1126
W 35 948,Mohammad,Branden,Ross,02/08/2019,Senegal,F,India,1,612881-2986
Y 18 453,Heather,Carter,Ulysses,18/01/2019,Sweden,M,United Kingdom,3,529753-8612
V 94 955,Indira,Hayden,Warren,17/04/2019,Saint Kitts and Nevis,F,United Kingdom,1,135173-3686
Z 33 130,Yuri,Sylvester,Charles,27/05/2019,Italy,M,India,2,243084-8909
C 00 470,Ralph,Quentin,Harper,31/08/2019,Vanuatu,F,India,2,415390-5577
Z 84 136,Garth,Zachery,Brenden,26/10/2018,Lebanon,M,United Kingdom,1,033303-4254
X 39 208,Nicholas,Oscar,Neville,18/04/2019,Nicaragua,M,United Kingdom,3,213824-7586
N 46 500,Eliana,Sebastian,Drake,13/12/2018,Bhutan,F,India,2,068875-5883
D 84 570,Griffith,Aladdin,Chester,21/07/2020,Liechtenstein,U,United Kingdom,3,092956-2379
X 60 305,Ivan,Todd,Herrod,15/02/2019,"Virgin Islands, British",M,United Kingdom,2,476665-3531
V 25 096,Griffin,Lars,Hammett,17/03/2019,Antarctica,U,United Kingdom,3,893416-2382
D 61 297,Nicole,Ahmed,Jonah,29/12/2018,Cyprus,F,United Kingdom,2,438804-5876
Y 95 796,Harrison,Alec,Aristotle,10/11/2019,Jamaica,M,United Kingdom,1,223440-6177
B 00 134,Simon,Barry,Gavin,10/05/2020,Barbados,M,United Kingdom,1,648566-8252
S 19 069,Jakeem,Warren,Victor,13/03/2020,South Africa,U,United Kingdom,1,405632-9834
W 04 402,Wayne,Dustin,Vaughan,07/01/2019,Georgia,F,United Kingdom,3,739349-4419
N 67 677,Neville,Jermaine,Colorado,16/04/2020,Niger,U,United Kingdom,3,348421-1986
P 91 132,Octavia,Hayden,Declan,03/02/2020,Hungary,U,India,1,497775-9168
B 27 130,Hanae,Randall,Linus,30/05/2020,Grenada,M,India,3,234634-8671
O 82 271,Mason,Abbot,Ira,15/09/2019,Peru,U,India,3,702165-5431
E 92 983,Yuli,Scott,Walker,08/04/2020,Senegal,M,United Kingdom,2,857308-0713
H 37 368,Seth,Damian,Cameron,27/02/2020,Antigua and Barbuda,U,India,2,804595-0907
B 79 422,Elton,Noble,Marsden,14/06/2020,Palau,U,United Kingdom,1,667892-7986
J 55 704,Brett,Benjamin,Merritt,21/01/2019,Cocos (Keeling) Islands,U,India,1,803087-1100
O 35 351,Vielka,Dalton,Upton,17/08/2019,South Sudan,F,India,3,617088-0857
W 87 511,Genevieve,Magee,Elton,27/07/2019,Ireland,F,United Kingdom,2,008308-0861
U 24 054,Illiana,Carl,Rashad,11/09/2019,Antigua and Barbuda,U,United Kingdom,3,876974-6218
K 97 917,Dustin,Berk,Knox,07/03/2019,Jordan,F,India,1,068413-6963
V 46 982,Isabella,Christian,Aidan,27/10/2019,Lesotho,F,United Kingdom,3,557644-3948
K 03 329,Scott,Adam,Damon,22/11/2018,Peru,F,India,3,626051-2246
N 50 180,Whitney,Brennan,Keefe,09/06/2019,Greenland,M,United Kingdom,1,555926-8361
T 71 306,Farrah,Baxter,Lester,12/10/2019,Madagascar,M,United Kingdom,3,485532-2832
W 19 217,Gwendolyn,Donovan,Eric,07/07/2020,Ukraine,F,United Kingdom,3,274332-1099
P 18 360,Logan,Jerry,Dolan,01/03/2019,Pitcairn Islands,U,United Kingdom,3,015741-1265
A 89 687,Martin,Barrett,Ezekiel,20/08/2019,Colombia,F,United Kingdom,1,279008-6421
R 37 822,Amelia,Brian,Lucian,03/01/2020,Maldives,M,United Kingdom,1,662268-9898
S 53 028,Cecilia,Murphy,Lucius,11/10/2019,Turkmenistan,U,United Kingdom,1,333810-9824
S 37 121,Rajah,Akeem,Craig,28/02/2020,Congo (Brazzaville),F,United Kingdom,2,197043-8006
D 07 142,Oleg,Nissim,Keegan,14/03/2020,Switzerland,U,India,1,493975-7508
K 86 386,Sebastian,Steven,Ignatius,19/06/2019,Uganda,U,India,1,702915-2399
H 54 491,Grant,Logan,Grant,22/06/2020,India,U,India,2,112783-5518
J 29 405,Serina,Vernon,Sylvester,10/04/2019,Sierra Leone,U,India,1,543695-3227
K 61 616,Whilemina,Gil,Uriel,11/11/2019,Bouvet Island,U,India,2,144344-8780
I 95 606,Samson,Kennan,Leroy,09/07/2020,Sint Maarten,M,India,3,928634-6953
P 07 341,Elton,Quinlan,Kirk,07/09/2019,Viet Nam,M,United Kingdom,1,479714-2975
J 45 973,Ashton,Garrison,Kaseem,15/12/2019,Ireland,F,India,1,302307-1842
W 59 784,Alexis,Chadwick,Gil,19/06/2019,Grenada,M,United Kingdom,2,359529-8542
I 38 367,Quentin,Acton,Tate,10/12/2019,Mongolia,U,United Kingdom,3,308868-7276
T 93 021,Griffin,Brett,Abel,12/01/2020,Cyprus,U,United Kingdom,1,959543-7915
W 38 144,Jeanette,Honorato,Abraham,24/01/2019,Andorra,U,United Kingdom,1,024394-5383
D 28 836,Jescie,Gage,Malik,09/06/2020,Central African Republic,F,United Kingdom,1,274852-3103
G 91 540,Reuben,Perry,Jackson,21/06/2020,Kyrgyzstan,M,United Kingdom,2,613088-1144
L 10 611,Victor,Rahim,Drew,22/12/2019,Gambia,M,India,1,674119-4549
G 44 340,Orson,Isaiah,Berk,30/07/2019,Guinea-Bissau,U,United Kingdom,1,306343-8174
J 45 683,Chancellor,Nathaniel,Lawrence,12/11/2019,Denmark,U,United Kingdom,2,683296-9379
F 52 346,Amaya,Kenneth,Stone,03/10/2019,Philippines,F,India,1,646590-8165
Y 02 226,Sonya,Upton,Addison,13/12/2019,Aruba,M,India,2,129828-3621
H 32 274,Kieran,Porter,Denton,15/09/2019,Sudan,U,United Kingdom,2,154463-8172
U 50 418,Dora,Wesley,Finn,18/06/2019,Ghana,M,United Kingdom,2,053171-0739
D 65 634,Leonard,Clark,Armand,12/04/2019,Lithuania,M,India,1,517928-7742
N 40 763,Hiram,Ahmed,Wang,15/10/2019,Colombia,U,India,3,698897-1351
R 08 588,Ingrid,Marsden,Zane,22/12/2019,Croatia,U,India,2,508867-6316
G 67 749,Ralph,Hedley,Christopher,15/12/2018,Western Sahara,F,United Kingdom,1,523189-2018
X 10 364,Zia,Yasir,Nathaniel,25/02/2019,Bosnia and Herzegovina,F,United Kingdom,2,856226-2389
R 88 866,Dieter,Austin,Fulton,20/09/2018,Belarus,F,United Kingdom,2,257844-3729
B 26 051,Zeus,Ross,Walker,09/12/2018,Kuwait,F,United Kingdom,2,143846-5641
